Endpoint is :
https://reqres.in/api/users/2

Request body is :
{
    "name": "morpheus",
    "job": "zion resident"
}

Response header date is : 
Sun, 17 Mar 2024 17:17:11 GMT

Response body is : 
{"name":"morpheus","job":"zion resident","updatedAt":"2024-03-17T17:17:11.243Z"}